ntdr • ntdr
…
get_ntd()

get_ntd() is the main function of the package. It
doesn’t have any required parameters:

ntd_data <- get_ntd()
#> New names:
#> • `2033379` -> `2033379...25`
#> • `2033379` -> `2033379...27`
ntd_data
#> # A tibble: 607,810 × 13
#>    ntd_id_5 ntd_id_4 agency      active reporter_type uace  uza_name modes tos  
#>    <chr>    <chr>    <chr>       <chr>  <chr>         <chr> <chr>    <chr> <chr>
#>  1 00001    0001     King Count… Active Full Reporter 80389 Seattle… DR    PT   
#>  2 00001    0001     King Count… Active Full Reporter 80389 Seattle… DR    PT   
#>  3 00001    0001     King Count… Active Full Reporter 80389 Seattle… DR    PT   
#>  4 00001    0001     King Count… Active Full Reporter 80389 Seattle… DR    PT   
#>  5 00001    0001     King Count… Active Full Reporter 80389 Seattle… DR    PT   
#>  6 00001    0001     King Count… Active Full Reporter 80389 Seattle… DR    PT   
#>  7 00001    0001     King Count… Active Full Reporter 80389 Seattle… DR    PT   
#>  8 00001    0001     King Count… Active Full Reporter 80389 Seattle… DR    PT   
#>  9 00001    0001     King Count… Active Full Reporter 80389 Seattle… DR    PT   
#> 10 00001    0001     King Count… Active Full Reporter 80389 Seattle… DR    PT   
#> # ℹ 607,800 more rows
#> # ℹ 4 more variables: modes_simplified <chr>, month <date>, value <dbl>,
#> #   ntd_variable <chr>
…
uza is an identifier for urbanized
areas and uza_name has the name of that area (this will
usually be how you will find your local agency).

Since July 2023, an additional identifier, uace is
included. In future versions of the dataset, this identifier will likely
replace the uza variable.

modes denotes the type of transit reported on.

ntd_data |>
  count(modes)
#> # A tibble: 21 × 2
#>    modes      n
#>    <chr>  <int>
#>  1 AG      1330
#>  2 AR       266
#>  3 CB     37772
#>  4 CC       266
#>  5 CR     10108
#>  6 DR    252434
#>  7 FB     12768
#>  8 HR      4256
#>  9 IP      1064
#> 10 LR      9310
#> # ℹ 11 more rows
…
